…
```r
group <- df.mt.raw %>% 
  group_by(Shape)
group#注意看数据框的第二行，有Groups:   Shape [4]的信息
```

```
## # A tibble: 25,920 × 16
## # Groups:   Shape [4]
##    Date        Prac    Sub   Age Sex   Hand  Block   Bin Trial Shape Label Match
##    <chr>       <chr> <int> <int> <chr> <chr> <int> <int> <int> <chr> <chr> <chr>
##  1 02-May-201… Exp    7302    22 fema… R         1     1     1 immo… immo… mism…
##  2 02-May-201… Exp    7302    22 fema… R         1     1     2 mora… mora… mism…
##  3 02-May-201… Exp    7302    22 fema… R         1     1     3 immo… immo… mism…
##  4 02-May-201… Exp    7302    22 fema… R         1     1     4 mora… mora… mism…
##  5 02-May-201… Exp    7302    22 fema… R         1     1     5 immo… immo… match
##  6 02-May-201… Exp    7302    22 fema… R         1     1     6 immo… immo… match
##  7 02-May-201… Exp    7302    22 fema… R         1     1     7 mora… mora… match
##  8 02-May-201… Exp    7302    22 fema… R         1     1     8 mora… mora… match
##  9 02-May-201… Exp    7302    22 fema… R         1     1     9 mora… mora… mism…
## 10 02-May-201… Exp    7302    22 fema… R         1     1    10 immo… immo… mism…
## # ℹ 25,910 more rows
## # ℹ 4 more variables: CorrResp <chr>, Resp <chr>, ACC <int>, RT <dbl>
```
…
