…
groupby有两个作用：第一个是分组，然后将其拆分为不同的小包，然后在对分组后的数据进行分析时，它将以组为单位进行操作，将每个组的结果分别计算，然后组合起来。如果我们在没有任何操作的情况下添加groupby，它会如何改变我们的数据框呢？


```r
# 读取原始数据
df.mt.raw <-  read.csv('./data/match/match_raw.csv',
                       header = T, sep=",", stringsAsFactors = FALSE) 
library("tidyverse")
group <- df.mt.raw %>% 
  group_by(Shape)
group#注意看数据框的第二行，有Groups:   Shape [4]的信息
```

```
## # A tibble: 25,920 x 16
## # Groups:   Shape [4]
##    Date        Prac    Sub   Age Sex   Hand  Block   Bin Trial Shape Label Match
##    <chr>       <chr> <int> <int> <chr> <chr> <int> <int> <int> <chr> <chr> <chr>
##  1 02-May-201~ Exp    7302    22 fema~ R         1     1     1 immo~ immo~ mism~
##  2 02-May-201~ Exp    7302    22 fema~ R         1     1     2 mora~ mora~ mism~
##  3 02-May-201~ Exp    7302    22 fema~ R         1     1     3 immo~ immo~ mism~
##  4 02-May-201~ Exp    7302    22 fema~ R         1     1     4 mora~ mora~ mism~
##  5 02-May-201~ Exp    7302    22 fema~ R         1     1     5 immo~ immo~ match
##  6 02-May-201~ Exp    7302    22 fema~ R         1     1     6 immo~ immo~ match
##  7 02-May-201~ Exp    7302    22 fema~ R         1     1     7 mora~ mora~ match
##  8 02-May-201~ Exp    7302    22 fema~ R         1     1     8 mora~ mora~ match
##  9 02-May-201~ Exp    7302    22 fema~ R         1     1     9 mora~ mora~ mism~
## 10 02-May-201~ Exp    7302    22 fema~ R         1     1    10 immo~ immo~ mism~
## # ... with 25,910 more rows, and 4 more variables: CorrResp <chr>, Resp <chr>,
## #   ACC <int>, RT <dbl>
```
…
